607 Week6 P3
…
hdata

## # A tibble: 303 x 14
##      age sex      cp trestbps  chol fbs   restecg thalach exang oldpeak
##    <dbl> <fct> <dbl>    <dbl> <dbl> <lgl>   <dbl>   <dbl> <lgl>   <dbl>
##  1    63 1         3      145   233 TRUE        0     150 FALSE     2.3
##  2    37 1         2      130   250 FALSE       1     187 FALSE     3.5
##  3    41 0         1      130   204 FALSE       0     172 FALSE     1.4
##  4    56 1         1      120   236 FALSE       1     178 FALSE     0.8
##  5    57 0         0      120   354 FALSE       1     163 TRUE      0.6
##  6    57 1         0      140   192 FALSE       1     148 FALSE     0.4
##  7    56 0         1      140   294 FALSE       0     153 FALSE     1.3
##  8    44 1         1      120   263 FALSE       1     173 FALSE     0  
##  9    52 1         2      172   199 TRUE        1     162 FALSE     0.5
## 10    57 1         2      150   168 FALSE       1     174 FALSE     1.6
## # ... with 293 more rows, and 4 more variables: slope <dbl>, ca <fct>,
## #   thal <fct>, target <lgl>
…
